"ADDRESS TABLE (MPT)","MDC","","","","","","","","","","","","","","","","","","","","","","","","","","","","","","","","","","",""
"PROJECT:","DefaultProject","","","","","","","","","","","","","","","","","","","","","","","","","","","","","","","","","","",""
"","","","","","","","","","","","","","","","","","","","","","","","","","","","","","","","","","","","",""
"DATE:","3/27/2017","","","","","","","","","","","","","","","","","","","","","","","","","","","","","","","","","","",""
"Project Manager:","","","","","","","","","","","","","","","","","","","","","","","","","","","","","","","","","","","",""
"Created By:","scd","","","","","","","","","","","","","","","","","","","","","","","","","","","","","","","","","","",""
"Serial No:","111111","","","","","","","","","","","","","","","","","","","","","","","","","","","","","","","","","","",""
"Dealer:","","","","","","","","","","","","","","","","","","","","","","","","","","","","","","","","","","","",""
"WO:","","","","","","","","","","","","","","","","","","","","","","","","","","","","","","","","","","","",""
"DWG No:","","","","","","","","","","","","","","","","","","","","","","","","","","","","","","","","","","","",""
"","","","","","","","","","","","","","","","","","","","","","","","","","","","","","","","","","","","",""
"","","","","","","","","","","","","","","","","","","","","","","","","","","","","","","","","","","","",""
"","MDC Parameters","","","","","","","","","","Motor Parameters","","","","","","","","","","","","","","","","","","","","","","","","",""
"Select Export","Room Name/No.","MNI UID#","ALIAS","LV PORTS","LV PORT TYPE","LV PORT PERSONALITY","LV PORT MODE","LV PORT ADDR.","#","Room Name/Number","Motor#","Zone","Motor UID#","Enable Motor","Motor Type","ALIAS","Direction","BUS ADDR. 1","BUS ADDR. 2","BUS ADDR.3","BUS ADDR. 4","BUS ADDR. 5","BUS ADDR. 6","BUS ADDR. 7","BUS ADDR. 8","Shade Type","BO Type","BO Address","Ramp Period","Rotation Speed Up","Fine Adjustment Up","Rotation Speed Down","Fine Adjustment Down","Slow Speed","Slow Speed Fine Adjustment","Somfy Node ID","Notes","",""
"","","10001","MNI-DC","L$1","LOCAL SW","3T","FORWARD","255.255.255","1","","1","","1","Enable","ST50DC","01-0001","NORMAL","255.1.255","255.254.255","255.254.255","255.254.255","255.254.255","255.254.255","255.254.255","255.254.255","SOLAR","INTERMEDIATE STOPS","255.1.255","255","25","1","25","2","25","3","","","",""
"","","","","L$2","LOCAL SW","3T","LOCAL","255.255.255","2","","2","","","Disable","ST50DC","","NORMAL","255.255.255","255.255.255","255.255.255","255.255.255","255.255.255","255.255.255","255.255.255","255.255.255","SOLAR","INTERMEDIATE STOPS","255.12.255","150","25","0","25","0","15","0","","","",""
"","","","","L$3","LOCAL SW","3T","LOCAL","255.255.255","3","","3","","","Disable","ST50DC","","NORMAL","255.255.255","255.255.255","255.255.255","255.255.255","255.255.255","255.255.255","255.255.255","255.255.255","SOLAR","INTERMEDIATE STOPS","255.13.255","150","25","0","25","0","15","0","","","",""
"","","","","L$4","LOCAL SW","3T","LOCAL","255.255.255","4","","4","","","Disable","ST50DC","","NORMAL","255.255.255","255.255.255","255.255.255","255.255.255","255.255.255","255.255.255","255.255.255","255.255.255","SOLAR","INTERMEDIATE STOPS","255.14.255","150","25","0","25","0","15","0","","","",""
"","","","","","","","","","5","","5","","","Disable","ST50DC","","NORMAL","255.255.255","255.255.255","255.255.255","255.255.255","255.255.255","255.255.255","255.255.255","255.255.255","SOLAR","INTERMEDIATE STOPS","255.255.255","150","25","0","25","0","15","0","","","",""
"","","","","","","","","","6","","6","","","Disable","ST50DC","","NORMAL","255.255.255","255.255.255","255.255.255","255.255.255","255.255.255","255.255.255","255.255.255","255.255.255","SOLAR","INTERMEDIATE STOPS","255.255.255","150","25","0","25","0","15","0","","","",""
"","","","","","","","","","7","","7","","","Disable","ST50DC","","NORMAL","255.255.255","255.255.255","255.255.255","255.255.255","255.255.255","255.255.255","255.255.255","255.255.255","SOLAR","INTERMEDIATE STOPS","255.255.255","150","25","0","25","0","15","0","","","",""
"","","","","","","","","","8","","8","","","Disable","ST50DC","","NORMAL","255.255.255","255.255.255","255.255.255","255.255.255","255.255.255","255.255.255","255.255.255","255.255.255","SOLAR","INTERMEDIATE STOPS","255.255.255","150","25","0","25","0","15","0","","","",""
"","","","","","","","","","9","","9","","","Disable","ST50DC","","NORMAL","255.255.255","255.255.255","255.255.255","255.255.255","255.255.255","255.255.255","255.255.255","255.255.255","SOLAR","INTERMEDIATE STOPS","255.255.255","150","25","0","25","0","15","0","","","",""
"","","","","","","","","","10","","10","","","Disable","ST50DC","","NORMAL","255.255.255","255.255.255","255.255.255","255.255.255","255.255.255","255.255.255","255.255.255","255.255.255","SOLAR","INTERMEDIATE STOPS","255.255.255","150","25","0","25","0","15","0","","","",""
"","","","","","","","","","11","","11","","","Disable","ST50DC","","NORMAL","255.255.255","255.255.255","255.255.255","255.255.255","255.255.255","255.255.255","255.255.255","255.255.255","SOLAR","INTERMEDIATE STOPS","255.255.255","150","25","0","25","0","15","0","","","",""
"","","","","","","","","","12","","12","","","Disable","ST50DC","","NORMAL","255.255.255","255.255.255","255.255.255","255.255.255","255.255.255","255.255.255","255.255.255","255.255.255","SOLAR","INTERMEDIATE STOPS","255.255.255","150","25","0","25","0","15","0","","","",""
"","","","","","","","","","13","","13","","","Disable","ST50DC","","NORMAL","255.255.255","255.255.255","255.255.255","255.255.255","255.255.255","255.255.255","255.255.255","255.255.255","SOLAR","INTERMEDIATE STOPS","255.255.255","150","25","0","25","0","15","0","","","",""
"","","","","","","","","","14","","14","","","Disable","ST50DC","","NORMAL","255.255.255","255.255.255","255.255.255","255.255.255","255.255.255","255.255.255","255.255.255","255.255.255","SOLAR","INTERMEDIATE STOPS","255.255.255","150","25","0","25","0","15","0","","","",""
"","","","","","","","","","15","","15","","","Disable","ST50DC","","NORMAL","255.255.255","255.255.255","255.255.255","255.255.255","255.255.255","255.255.255","255.255.255","255.255.255","SOLAR","INTERMEDIATE STOPS","255.255.255","150","25","0","25","0","15","0","","","",""
"","","","","","","","","","16","","16","","","Disable","ST50DC","","NORMAL","255.255.255","255.255.255","255.255.255","255.255.255","255.255.255","255.255.255","255.255.255","255.255.255","SOLAR","INTERMEDIATE STOPS","255.255.255","150","25","0","25","0","15","0","","","",""
"","","","","","","","","","17","","17","","","Disable","ST50DC","","NORMAL","255.255.255","255.255.255","255.255.255","255.255.255","255.255.255","255.255.255","255.255.255","255.255.255","SOLAR","INTERMEDIATE STOPS","255.255.255","150","25","0","25","0","15","0","","","",""
"","","","","","","","","","18","","18","","","Disable","ST50DC","","NORMAL","255.255.255","255.255.255","255.255.255","255.255.255","255.255.255","255.255.255","255.255.255","255.255.255","SOLAR","INTERMEDIATE STOPS","255.255.255","150","25","0","25","0","15","0","","","",""
"","","","","","","","","","19","","19","","","Disable","ST50DC","","NORMAL","255.255.255","255.255.255","255.255.255","255.255.255","255.255.255","255.255.255","255.255.255","255.255.255","SOLAR","INTERMEDIATE STOPS","255.255.255","150","25","0","25","0","15","0","","","",""
"","","","","","","","","","20","","20","","","Disable","ST50DC","","NORMAL","255.255.255","255.255.255","255.255.255","255.255.255","255.255.255","255.255.255","255.255.255","255.255.255","SOLAR","INTERMEDIATE STOPS","255.255.255","150","25","0","25","0","15","0","","","",""
